What’s the difference between Cubist and RuleFit?
…
library(dplyr)
library(purrr)
library(rlang)

rule_4_filter <- 
  cb_res %>% 
  dplyr::filter(rule_num == 4) %>% 
  pluck("rule") %>%   # <- character string
  parse_expr() %>%    # <- R expression
  eval_tidy(penguins) # <- logical vector

penguins %>% 
  dplyr::slice(which(rule_4_filter))
#> # A tibble: 23 x 7
#>    species island bill_length_mm bill_depth_mm flipper_length_… body_mass_g
#>    <fct>   <fct>           <dbl>         <dbl>            <int>       <int>
#>  1 Adelie  Dream            41.1          18.1              205        4300
#>  2 Adelie  Dream            40.8          18.9              208        4300
#>  3 Adelie  Biscoe           41            20                203        4725
#>  4 Adelie  Torge…           44.1          18                210        4000
#>  5 Gentoo  Biscoe           59.6          17                230        6050
#>  6 Gentoo  Biscoe           44.4          17.3              219        5250
#>  7 Gentoo  Biscoe           49.8          16.8              230        5700
#>  8 Gentoo  Biscoe           50.8          17.3              228        5600
#>  9 Gentoo  Biscoe           52.1          17                230        5550
#> 10 Gentoo  Biscoe           52.2          17.1              228        5400
#> # … with 13 more rows, and 1 more variable: sex <fct>
…
rule_fit_fit
#> parsnip model object
#> 
#> Fit time:  1.9s 
#> An eXtreme RuleFit model of 112 rules.
#> 
#> Original Formula:
#> 
#> body_mass_g ~ species + island + bill_length_mm + bill_depth_mm + flipper_length_mm + [truncated]

To get the rules and their associated coefficients, the tidy() method can be used again:

rf_res <- tidy(rule_fit_fit)
rf_res
#> # A tibble: 110 x 3
#>    rule_id          rule                                                estimate
#>    <chr>            <chr>                                                  <dbl>
#>  1 (Intercept)      ( TRUE )                                             5753.  
#>  2 bill_depth_mm    ( bill_depth_mm )                                     -15.9 
#>  3 bill_length_mm   ( bill_length_mm )                                      1.10
#>  4 flipper_length_… ( flipper_length_mm )                                  -7.67
#>  5 islandDream      ( island == 'Dream' )                                 -29.2 
#>  6 islandTorgersen  ( island == 'Torgersen' )                             -16.8 
#>  7 r0_2             ( species == 'Gentoo' )                               472.  
#>  8 r0_3             ( sex != 'male' ) & ( species != 'Gentoo' )           -78.8 
#>  9 r1_2             ( flipper_length_mm >= 211.5 )                        219.  
#> 10 r1_3             ( flipper_length_mm <  194.5 ) & ( flipper_length_…  -142.  
#> # … with 100 more rows
…
which can be simplified to have fewer conditions:

( bill_depth_mm >= 14.1499996 ) & 
( flipper_length_mm <  227 ) & 
( flipper_length_mm >= 197.5 ) & 

Also, the tidy() function can extract the same information but use the original predictors as the unit:

rf_variable_res <- tidy(rule_fit_fit, unit = "columns")
rf_variable_res
#> # A tibble: 452 x 3
#>    rule_id term              estimate
#>    <chr>   <chr>                <dbl>
#>  1 r0_3    species             -78.8 
#>  2 r0_2    species             472.  
#>  3 r0_3    sex                 -78.8 
#>  4 r1_3    flipper_length_mm  -142.  
#>  5 r1_2    flipper_length_mm   219.  
#>  6 r1_3    flipper_length_mm  -142.  
#>  7 r2_7    flipper_length_mm     9.04
#>  8 r2_7    sex                   9.04
#>  9 r2_7    species               9.04
#> 10 r3_3    flipper_length_mm  -101.  
#> # … with 442 more rows
…
